aniso8601==8.0.0
asgiref==3.2.3
attrs==19.1.0
automium==0.2.6
automium-web==0.1.1
backcall==0.1.0
bcrypt==3.1.7
beautifulsoup4==4.8.2
bleach==3.1.0
blinker==1.4
bs4==0.0.1
certifi==2019.9.11
cffi==1.13.2
chardet==3.0.4
Click==7.0
colorama==0.4.1
cryptography==2.8
cycler==0.10.0
DateTime==4.3
decorator==4.4.0
defusedxml==0.5.0
Django==2.2.4
djangorestframework==3.11.0
docutils==0.16
entrypoints==0.3
Flask==1.0.2
Flask-Admin==1.5.4
Flask-Bcrypt==0.7.1
Flask-DebugToolbar==0.10.1
Flask-HTTPAuth==3.3.0
Flask-Login==0.4.1
Flask-Mail==0.9.1
flask-marshmallow==0.10.1
flask-paginate==0.5.5
Flask-RESTful==0.3.7
Flask-SQLAlchemy==2.4.1
flaskwebgui==0.0.7
future==0.17.1
gevent==1.5a3
geventhttpclient-wheels==1.3.1.dev2
greenlet==0.4.15
gviz-api==1.9.0
h5py==2.8.0
hyperopt==0.1.2
idna==2.8
ipykernel==5.1.0
ipython==7.3.0
ipython-genutils==0.2.0
ipywidgets==7.4.2
itsdangerous==1.1.0
jedi==0.13.3
Jinja2==2.10
jsonschema==3.0.1
jupyter==1.0.0
jupyter-client==5.2.4
jupyter-console==6.0.0
jupyter-core==4.4.0
Keras==2.2.4
Keras-Applications==1.0.6
Keras-Preprocessing==1.0.5
kiwisolver==1.0.1
legacy==0.1.6
loadtest==0.0.2
locustio==0.13.5
MarkupSafe==1.1.0
marshmallow==3.3.0
marshmallow-sqlalchemy==0.21.0
matplotlib==3.0.2
mistune==0.8.4
msgpack-python==0.5.6
nbconvert==5.4.1
nbformat==4.4.0
network==0.1
networkx==2.2
notebook==5.7.6
numpy==1.15.4
pandas==0.23.4
pandocfilters==1.4.2
parso==0.3.4
pickleshare==0.7.5
Pillow==6.0.0
pipenv==2018.11.26
prometheus-client==0.6.0
prompt-toolkit==2.0.9
protobuf==3.7.1
psutil==5.6.3
pycparser==2.19
Pygments==2.3.1
pymongo==3.8.0
pyOpenSSL==19.1.0
pyparsing==2.3.0
pyrsistent==0.14.11
python-dateutil==2.7.5
python-firebase==1.2
pytz==2018.7
pywinpty==0.5.5
PyYAML==3.13
pyzmq==18.0.1
qtconsole==4.4.3
requests==2.22.0
schedule==0.6.0
scikit-learn==0.20.1
scipy==1.1.0
selenium==3.141.0
Send2Trash==1.5.0
six==1.11.0
sklearn==0.0
soupsieve==1.9.5
SQLAlchemy==1.3.12
sqlparse==0.3.0
statistics==1.0.3.5
stepic==0.4.1
tensorflow==1.0.0
terminado==0.8.1
testpath==0.4.2
tflearn==0.3.2
tornado==6.0.1
tqdm==4.31.1
traitlets==4.3.2
urllib3==1.25.6
views==0.3
virtualenv==16.1.0
virtualenv-clone==0.5.3
wcwidth==0.1.7
webencodings==0.5.1
Werkzeug==0.14.1
whichcraft==0.6.1
widgetsnbextension==3.4.2
WTForms==2.2.1
xlwt==1.3.0
zope.interface==4.7.1
